﻿<?xml version="1.0" encoding="UTF-8"?>
<TestRun id="0ca56c05-a03a-4537-93af-5f4f3476415d" name="SANDY RAFAEL@SANDYRAFAEL-PC 2017-04-04 04:40:01" runUser="SANDYRAFAEL-PC\SANDY RAFAEL" xmlns="http://microsoft.com/schemas/VisualStudio/TeamTest/2010">
  <TestSettings name="Local" id="48c6d4fe-34a2-4e9a-87ef-88da5e4310be">
    <Description>These are default test settings for a local test run.</Description>
    <Deployment enabled="false" runDeploymentRoot="SANDY RAFAEL_SANDYRAFAEL-PC 2017-04-04 04_40_01">
      <DeploymentItem filename="C:\Projects\NET\C#\MVCSeleniumTest\packages\Selenium.WebDriver.3.3.0\lib\net40\WebDriver.dll" />
      <DeploymentItem filename="C:\Projects\NET\C#\MVCSeleniumTest\packages\Selenium.Support.3.3.0\lib\net40\WebDriver.Support.dll" />
    </Deployment>
    <Execution>
      <TestTypeSpecific />
      <AgentRule name="Execution Agents">
      </AgentRule>
    </Execution>
  </TestSettings>
  <Times creation="2017-04-04T04:40:01.1505500-04:00" queuing="2017-04-04T04:40:03.5616879-04:00" start="2017-04-04T04:40:03.6986958-04:00" finish="2017-04-04T04:40:20.7286698-04:00" />
  <ResultSummary outcome="Completed">
    <Counters total="1" executed="1" passed="1" error="0" failed="0" timeout="0" aborted="0" inconclusive="0" passedButRunAborted="0" notRunnable="0" notExecuted="0" disconnected="0" warning="0" completed="0" inProgress="0" pending="0" />
  </ResultSummary>
  <TestDefinitions>
    <UnitTest name="TestCreateMethod" storage="c:\projects\net\c#\mvcseleniumtest\mvcseleniumtest\bin\debug\mvcseleniumtest.dll" id="db1904ec-8c07-b61c-452f-6b393107e014">
      <Execution id="56c9fb4d-23d5-4197-908d-d66a9722fa14" />
      <TestMethod codeBase="C:/Projects/NET/C#/MVCSeleniumTest/MVCSeleniumTest/bin/Debug/MVCSeleniumTest.DLL" adapterTypeName="Microsoft.VisualStudio.TestTools.TestTypes.Unit.UnitTestAdapter, Microsoft.VisualStudio.QualityTools.Tips.UnitTest.Adapter, Version=10.0.0.0, Culture=neutral, PublicKeyToken=b03f5f7f11d50a3a" className="MVCSeleniumTest.UnitTest1, MVCSeleniumTest, Version=1.0.0.0, Culture=neutral, PublicKeyToken=null" name="TestCreateMethod" />
    </UnitTest>
  </TestDefinitions>
  <TestLists>
    <TestList name="Results Not in a List" id="8c84fa94-04c1-424b-9868-57a2d4851a1d" />
    <TestList name="All Loaded Results" id="19431567-8539-422a-85d7-44ee4e166bda" />
  </TestLists>
  <TestEntries>
    <TestEntry testId="db1904ec-8c07-b61c-452f-6b393107e014" executionId="56c9fb4d-23d5-4197-908d-d66a9722fa14" testListId="8c84fa94-04c1-424b-9868-57a2d4851a1d" />
  </TestEntries>
  <Results>
    <UnitTestResult executionId="56c9fb4d-23d5-4197-908d-d66a9722fa14" testId="db1904ec-8c07-b61c-452f-6b393107e014" testName="TestCreateMethod" computerName="SANDYRAFAEL-PC" duration="00:00:15.4753729" startTime="2017-04-04T04:40:03.8607050-04:00" endTime="2017-04-04T04:40:20.6556657-04:00" testType="13cdc9d9-ddb5-4fa4-a97d-d965ccfc6d4b" outcome="Passed" testListId="8c84fa94-04c1-424b-9868-57a2d4851a1d" relativeResultsDirectory="56c9fb4d-23d5-4197-908d-d66a9722fa14">
    </UnitTestResult>
  </Results>
</TestRun>